{
  "getChildCheckInCheckOutByArea" : {
    "transaction" : "getChildCheckInCheckOutByArea",
    "sampleCount" : 2458,
    "errorCount" : 0,
    "errorPct" : 0.0,
    "meanResTime" : 301.3360455655001,
    "medianResTime" : 277.0,
    "minResTime" : 107.0,
    "maxResTime" : 839.0,
    "pct1ResTime" : 473.0999999999999,
    "pct2ResTime" : 519.0499999999997,
    "pct3ResTime" : 617.8199999999997,
    "throughput" : 8.195846726329409,
    "receivedKBytesPerSec" : 44.05749534023767,
    "sentKBytesPerSec" : 27.21277233351561
  },
  "findAllConfigByCategory" : {
    "transaction" : "findAllConfigByCategory",
    "sampleCount" : 2767,
    "errorCount" : 0,
    "errorPct" : 0.0,
    "meanResTime" : 9.956631731116726,
    "medianResTime" : 5.0,
    "minResTime" : 2.0,
    "maxResTime" : 228.0,
    "pct1ResTime" : 16.0,
    "pct2ResTime" : 32.0,
    "pct3ResTime" : 97.28000000000065,
    "throughput" : 9.2519217716076,
    "receivedKBytesPerSec" : 8.464122889729264,
    "sentKBytesPerSec" : 8.032316603095232
  },
  "getDashboardData" : {
    "transaction" : "getDashboardData",
    "sampleCount" : 3837,
    "errorCount" : 0,
    "errorPct" : 0.0,
    "meanResTime" : 173.8019285900443,
    "medianResTime" : 160.0,
    "minResTime" : 69.0,
    "maxResTime" : 583.0,
    "pct1ResTime" : 254.0,
    "pct2ResTime" : 290.0,
    "pct3ResTime" : 377.0,
    "throughput" : 12.828614128526867,
    "receivedKBytesPerSec" : 111.36088963718292,
    "sentKBytesPerSec" : 34.15117393980883
  },
  "getAllClassInfo" : {
    "transaction" : "getAllClassInfo",
    "sampleCount" : 2455,
    "errorCount" : 0,
    "errorPct" : 0.0,
    "meanResTime" : 44.411405295315724,
    "medianResTime" : 31.0,
    "minResTime" : 9.0,
    "maxResTime" : 330.0,
    "pct1ResTime" : 88.0,
    "pct2ResTime" : 115.19999999999982,
    "pct3ResTime" : 192.44000000000005,
    "throughput" : 8.211800909820711,
    "receivedKBytesPerSec" : 9.069869950202369,
    "sentKBytesPerSec" : 8.027356162822786
  },
  "findAllLevels" : {
    "transaction" : "findAllLevels",
    "sampleCount" : 3705,
    "errorCount" : 0,
    "errorPct" : 0.0,
    "meanResTime" : 34.07665317138998,
    "medianResTime" : 18.0,
    "minResTime" : 5.0,
    "maxResTime" : 295.0,
    "pct1ResTime" : 81.0,
    "pct2ResTime" : 114.0,
    "pct3ResTime" : 193.82000000000016,
    "throughput" : 12.394206001405012,
    "receivedKBytesPerSec" : 7.8916233524570965,
    "sentKBytesPerSec" : 10.433403880088983
  },
  "findAllConfigByCategory (health_check_type)" : {
    "transaction" : "findAllConfigByCategory (health_check_type)",
    "sampleCount" : 3708,
    "errorCount" : 0,
    "errorPct" : 0.0,
    "meanResTime" : 33.74676375404525,
    "medianResTime" : 19.0,
    "minResTime" : 5.0,
    "maxResTime" : 337.0,
    "pct1ResTime" : 77.0,
    "pct2ResTime" : 109.0,
    "pct3ResTime" : 195.54999999999927,
    "throughput" : 12.398352236250803,
    "receivedKBytesPerSec" : 12.216735748415097,
    "sentKBytesPerSec" : 11.914041602022255
  },
  "getAllEvents" : {
    "transaction" : "getAllEvents",
    "sampleCount" : 4444,
    "errorCount" : 0,
    "errorPct" : 0.0,
    "meanResTime" : 41.33775877587738,
    "medianResTime" : 23.0,
    "minResTime" : 7.0,
    "maxResTime" : 409.0,
    "pct1ResTime" : 96.0,
    "pct2ResTime" : 129.0,
    "pct3ResTime" : 222.7500000000009,
    "throughput" : 14.865461551841793,
    "receivedKBytesPerSec" : 7.360145514437294,
    "sentKBytesPerSec" : 16.142962153953196
  },
  "addOrUpdateUserDevice" : {
    "transaction" : "addOrUpdateUserDevice",
    "sampleCount" : 8593,
    "errorCount" : 0,
    "errorPct" : 0.0,
    "meanResTime" : 66.45909461189345,
    "medianResTime" : 48.0,
    "minResTime" : 10.0,
    "maxResTime" : 497.0,
    "pct1ResTime" : 139.0,
    "pct2ResTime" : 186.0,
    "pct3ResTime" : 273.0,
    "throughput" : 28.727793044885296,
    "receivedKBytesPerSec" : 13.858915785325523,
    "sentKBytesPerSec" : 35.04880847086267
  },
  "getHomefeed" : {
    "transaction" : "getHomefeed",
    "sampleCount" : 309,
    "errorCount" : 0,
    "errorPct" : 0.0,
    "meanResTime" : 4392.530744336567,
    "medianResTime" : 4401.0,
    "minResTime" : 3523.0,
    "maxResTime" : 5012.0,
    "pct1ResTime" : 4699.0,
    "pct2ResTime" : 4783.0,
    "pct3ResTime" : 4917.599999999999,
    "throughput" : 1.0303846769460598,
    "receivedKBytesPerSec" : 194.24864254008997,
    "sentKBytesPerSec" : 3.1303971972453053
  },
  "findAllConfigByCategory (Relation_Child)" : {
    "transaction" : "findAllConfigByCategory (Relation_Child)",
    "sampleCount" : 3708,
    "errorCount" : 0,
    "errorPct" : 0.0,
    "meanResTime" : 33.032901833872735,
    "medianResTime" : 18.0,
    "minResTime" : 5.0,
    "maxResTime" : 377.0,
    "pct1ResTime" : 77.0,
    "pct2ResTime" : 107.0,
    "pct3ResTime" : 188.0,
    "throughput" : 12.397315920921974,
    "receivedKBytesPerSec" : 9.90332463214275,
    "sentKBytesPerSec" : 11.876725506273885
  },
  "me" : {
    "transaction" : "me",
    "sampleCount" : 2762,
    "errorCount" : 0,
    "errorPct" : 0.0,
    "meanResTime" : 81.15640839971039,
    "medianResTime" : 63.0,
    "minResTime" : 24.0,
    "maxResTime" : 498.0,
    "pct1ResTime" : 153.0,
    "pct2ResTime" : 192.0,
    "pct3ResTime" : 280.0,
    "throughput" : 9.254140406954344,
    "receivedKBytesPerSec" : 14.687806127726905,
    "sentKBytesPerSec" : 21.094611843130256
  },
  "getNotificationCount" : {
    "transaction" : "getNotificationCount",
    "sampleCount" : 4750,
    "errorCount" : 0,
    "errorPct" : 0.0,
    "meanResTime" : 46.10463157894727,
    "medianResTime" : 27.0,
    "minResTime" : 8.0,
    "maxResTime" : 404.0,
    "pct1ResTime" : 102.0,
    "pct2ResTime" : 144.0,
    "pct3ResTime" : 242.48999999999978,
    "throughput" : 15.889050938624777,
    "receivedKBytesPerSec" : 8.254858495457405,
    "sentKBytesPerSec" : 17.096396676846812
  },
  "dismissChildCheckInByVPS" : {
    "transaction" : "dismissChildCheckInByVPS",
    "sampleCount" : 2453,
    "errorCount" : 0,
    "errorPct" : 0.0,
    "meanResTime" : 42.546269873624084,
    "medianResTime" : 24.0,
    "minResTime" : 6.0,
    "maxResTime" : 364.0,
    "pct1ResTime" : 97.59999999999991,
    "pct2ResTime" : 138.29999999999973,
    "pct3ResTime" : 231.76000000000022,
    "throughput" : 8.220206359685132,
    "receivedKBytesPerSec" : 4.567673260410976,
    "sentKBytesPerSec" : 6.277540403587669
  },
  "findAllConfigByCategory (non_parent_relationship)" : {
    "transaction" : "findAllConfigByCategory (non_parent_relationship)",
    "sampleCount" : 3708,
    "errorCount" : 0,
    "errorPct" : 0.0,
    "meanResTime" : 33.26510248112193,
    "medianResTime" : 18.0,
    "minResTime" : 5.0,
    "maxResTime" : 388.0,
    "pct1ResTime" : 78.0,
    "pct2ResTime" : 110.0,
    "pct3ResTime" : 194.8199999999997,
    "throughput" : 12.395450989830916,
    "receivedKBytesPerSec" : 10.131828592273903,
    "sentKBytesPerSec" : 11.983883281184188
  },
  "findAllConfigByCategory (guardian_rejection_reason)" : {
    "transaction" : "findAllConfigByCategory (guardian_rejection_reason)",
    "sampleCount" : 3707,
    "errorCount" : 0,
    "errorPct" : 0.0,
    "meanResTime" : 34.5673050984624,
    "medianResTime" : 19.0,
    "minResTime" : 5.0,
    "maxResTime" : 353.0,
    "pct1ResTime" : 80.0,
    "pct2ResTime" : 113.0,
    "pct3ResTime" : 198.84000000000015,
    "throughput" : 12.39521578776662,
    "receivedKBytesPerSec" : 11.80208534479732,
    "sentKBytesPerSec" : 12.007865294398913
  },
  "addClassesToArea" : {
    "transaction" : "addClassesToArea",
    "sampleCount" : 2457,
    "errorCount" : 0,
    "errorPct" : 0.0,
    "meanResTime" : 80.49654049654048,
    "medianResTime" : 62.0,
    "minResTime" : 14.0,
    "maxResTime" : 433.0,
    "pct1ResTime" : 158.20000000000027,
    "pct2ResTime" : 206.0,
    "pct3ResTime" : 298.6800000000003,
    "throughput" : 8.214973519499278,
    "receivedKBytesPerSec" : 4.500586078553804,
    "sentKBytesPerSec" : 5.97671413283883
  },
  "getCountCheckInOutChildren" : {
    "transaction" : "getCountCheckInOutChildren",
    "sampleCount" : 3709,
    "errorCount" : 0,
    "errorPct" : 0.0,
    "meanResTime" : 40.340792666486955,
    "medianResTime" : 23.0,
    "minResTime" : 6.0,
    "maxResTime" : 390.0,
    "pct1ResTime" : 93.0,
    "pct2ResTime" : 128.0,
    "pct3ResTime" : 227.0,
    "throughput" : 12.395686073986438,
    "receivedKBytesPerSec" : 7.783619282786407,
    "sentKBytesPerSec" : 14.453563644863094
  },
  "getCentreHolidaysOfYear" : {
    "transaction" : "getCentreHolidaysOfYear",
    "sampleCount" : 8286,
    "errorCount" : 0,
    "errorPct" : 0.0,
    "meanResTime" : 53.730147236302194,
    "medianResTime" : 35.0,
    "minResTime" : 10.0,
    "maxResTime" : 422.0,
    "pct1ResTime" : 114.0,
    "pct2ResTime" : 156.0,
    "pct3ResTime" : 249.0,
    "throughput" : 27.693572591183912,
    "receivedKBytesPerSec" : 50.434730454741434,
    "sentKBytesPerSec" : 27.18101950222759
  },
  "findAllChildrenByParent" : {
    "transaction" : "findAllChildrenByParent",
    "sampleCount" : 309,
    "errorCount" : 0,
    "errorPct" : 0.0,
    "meanResTime" : 90.16504854368931,
    "medianResTime" : 62.0,
    "minResTime" : 20.0,
    "maxResTime" : 473.0,
    "pct1ResTime" : 200.0,
    "pct2ResTime" : 280.0,
    "pct3ResTime" : 370.7999999999995,
    "throughput" : 1.042721198623203,
    "receivedKBytesPerSec" : 2.240221325167038,
    "sentKBytesPerSec" : 1.5976851178123104
  },
  "findAllSchoolConfig" : {
    "transaction" : "findAllSchoolConfig",
    "sampleCount" : 8596,
    "errorCount" : 0,
    "errorPct" : 0.0,
    "meanResTime" : 62.84399720800383,
    "medianResTime" : 47.0,
    "minResTime" : 11.0,
    "maxResTime" : 432.0,
    "pct1ResTime" : 125.0,
    "pct2ResTime" : 166.0,
    "pct3ResTime" : 245.0,
    "throughput" : 28.728026201457123,
    "receivedKBytesPerSec" : 626.517852666934,
    "sentKBytesPerSec" : 17.199556085405387
  },
  "getChildCheckInCheckOut" : {
    "transaction" : "getChildCheckInCheckOut",
    "sampleCount" : 3709,
    "errorCount" : 0,
    "errorPct" : 0.0,
    "meanResTime" : 75.01833378269086,
    "medianResTime" : 55.0,
    "minResTime" : 17.0,
    "maxResTime" : 691.0,
    "pct1ResTime" : 149.0,
    "pct2ResTime" : 200.5,
    "pct3ResTime" : 292.0,
    "throughput" : 12.368156914530001,
    "receivedKBytesPerSec" : 6.2565481266860745,
    "sentKBytesPerSec" : 36.34353921466872
  },
  "getClassAttendanceSummaries" : {
    "transaction" : "getClassAttendanceSummaries",
    "sampleCount" : 4447,
    "errorCount" : 0,
    "errorPct" : 0.0,
    "meanResTime" : 53.20013492241961,
    "medianResTime" : 32.0,
    "minResTime" : 7.0,
    "maxResTime" : 390.0,
    "pct1ResTime" : 123.0,
    "pct2ResTime" : 171.59999999999945,
    "pct3ResTime" : 268.5599999999986,
    "throughput" : 14.864855830620199,
    "receivedKBytesPerSec" : 8.419547247812222,
    "sentKBytesPerSec" : 16.301985447057113
  },
  "getLatestMobileVersion" : {
    "transaction" : "getLatestMobileVersion",
    "sampleCount" : 8597,
    "errorCount" : 0,
    "errorPct" : 0.0,
    "meanResTime" : 21.472955682214707,
    "medianResTime" : 15.0,
    "minResTime" : 8.0,
    "maxResTime" : 646.0,
    "pct1ResTime" : 35.0,
    "pct2ResTime" : 51.0,
    "pct3ResTime" : 108.0,
    "throughput" : 28.670428472333384,
    "receivedKBytesPerSec" : 15.622674665089242,
    "sentKBytesPerSec" : 16.841212036986086
  },
  "findAllConfigByCategory (checkout_decline_reason)" : {
    "transaction" : "findAllConfigByCategory (checkout_decline_reason)",
    "sampleCount" : 3706,
    "errorCount" : 0,
    "errorPct" : 0.0,
    "meanResTime" : 34.24905558553702,
    "medianResTime" : 18.0,
    "minResTime" : 5.0,
    "maxResTime" : 284.0,
    "pct1ResTime" : 82.0,
    "pct2ResTime" : 118.0,
    "pct3ResTime" : 200.64999999999918,
    "throughput" : 12.392327858327537,
    "receivedKBytesPerSec" : 8.556031050622627,
    "sentKBytesPerSec" : 11.980863847406507
  },
  "getAllCentreClasses" : {
    "transaction" : "getAllCentreClasses",
    "sampleCount" : 3705,
    "errorCount" : 0,
    "errorPct" : 0.0,
    "meanResTime" : 51.46828609986501,
    "medianResTime" : 35.0,
    "minResTime" : 9.0,
    "maxResTime" : 381.0,
    "pct1ResTime" : 102.0,
    "pct2ResTime" : 141.0,
    "pct3ResTime" : 221.0,
    "throughput" : 12.393169540566307,
    "receivedKBytesPerSec" : 17.004300004390295,
    "sentKBytesPerSec" : 14.063342779431688
  },
  "Total" : {
    "transaction" : "Total",
    "sampleCount" : 107048,
    "errorCount" : 0,
    "errorPct" : 0.0,
    "meanResTime" : 69.79566175921063,
    "medianResTime" : 32.0,
    "minResTime" : 2.0,
    "maxResTime" : 5012.0,
    "pct1ResTime" : 130.0,
    "pct2ResTime" : 186.0,
    "pct3ResTime" : 324.0,
    "throughput" : 355.77594171879053,
    "receivedKBytesPerSec" : 1232.1656330699168,
    "sentKBytesPerSec" : 414.0775889009874
  },
  "getAllArea" : {
    "transaction" : "getAllArea",
    "sampleCount" : 2455,
    "errorCount" : 0,
    "errorPct" : 0.0,
    "meanResTime" : 58.246028513238386,
    "medianResTime" : 42.0,
    "minResTime" : 10.0,
    "maxResTime" : 359.0,
    "pct1ResTime" : 117.0,
    "pct2ResTime" : 149.19999999999982,
    "pct3ResTime" : 249.44000000000005,
    "throughput" : 8.210702341137123,
    "receivedKBytesPerSec" : 15.226683345526755,
    "sentKBytesPerSec" : 8.07439185305184
  },
  "findAllConfigByCategory (checkin_decline_reason)" : {
    "transaction" : "findAllConfigByCategory (checkin_decline_reason)",
    "sampleCount" : 3708,
    "errorCount" : 0,
    "errorPct" : 0.0,
    "meanResTime" : 32.81229773462768,
    "medianResTime" : 18.0,
    "minResTime" : 5.0,
    "maxResTime" : 395.0,
    "pct1ResTime" : 76.0,
    "pct2ResTime" : 109.0,
    "pct3ResTime" : 196.90999999999985,
    "throughput" : 12.396362663813854,
    "receivedKBytesPerSec" : 8.219853758525007,
    "sentKBytesPerSec" : 11.972658861828029
  }
}